<?xml version="1.0" encoding="UTF-8"?>
<svg width="114px" height="120px" viewBox="0 0 114 120" version="1.1" xmlns="http://www.w3.org/2000/svg" xmlns:xlink="http://www.w3.org/1999/xlink">
    <!-- Generator: Sketch 61 (89581) - https://sketch.com -->
    <title>participation</title>
    <desc>Created with Sketch.</desc>
    <defs>
        <linearGradient x1="-12.7464119%" y1="-62.9882356%" x2="82.6971041%" y2="119.269384%" id="linearGradient-1">
            <stop stop-color="#192647" offset="0%"></stop>
            <stop stop-color="#192647" stop-opacity="0.5" offset="0%"></stop>
            <stop stop-color="#192647" stop-opacity="0" offset="100%"></stop>
        </linearGradient>
        <linearGradient x1="100.026021%" y1="50.0023274%" x2="0%" y2="50.0023274%" id="linearGradient-2">
            <stop stop-color="#192647" offset="0%"></stop>
            <stop stop-color="#D8722C" stop-opacity="0.2" offset="0%"></stop>
            <stop stop-color="#D8722C" stop-opacity="0" offset="100%"></stop>
        </linearGradient>
    </defs>
    <g id="Diseño" stroke="none" stroke-width="1" fill="none" fill-rule="evenodd">
        <g id="3_About_desktop_2" transform="translate(-1077.000000, -955.000000)">
            <g id="Group-6" transform="translate(146.000000, 635.000000)">
                <g id="Group-58" transform="translate(828.000000, 320.000000)">
                    <g id="participation" transform="translate(103.000000, 0.000000)">
                        <path d="M112.528146,57.4187643 C112.49145,56.8954986 112.244867,56.4092644 111.844394,56.0704805 L111.844394,55.8315789 C111.558092,55.4275779 111.100696,55.1791031 110.60595,55.1588101 C110.040954,55.1648864 109.520238,55.4658603 109.232952,55.9524027 L109.232952,56.1583524 C108.866402,56.5137112 108.654339,56.9989901 108.642563,57.5093822 C108.623341,58.4155606 108.601373,59.6512586 108.587643,61.2411899 C108.557437,64.3743707 108.112586,68.4851259 107.93135,70.0283753 C107.926185,70.0491972 107.907494,70.0638187 107.886041,70.0638187 C107.864588,70.0638187 107.845897,70.0491972 107.840732,70.0283753 C107.774828,68.0155606 107.566133,61.4471396 107.291533,56.5153318 C107.140503,53.5771167 107.016934,51.4187643 106.95103,49.9935927 C106.92003,49.3956443 106.655812,48.8336882 106.215103,48.4283753 C106.215103,48.2993135 106.201373,48.1729977 106.193135,48.0549199 C105.850412,47.5615531 105.296744,47.2567813 104.696568,47.2311213 C103.974603,47.234144 103.313767,47.6369895 102.98032,48.2773455 C102.98032,48.3624714 102.98032,48.4558352 102.98032,48.5519451 C102.560919,48.9959059 102.336475,49.5891504 102.356979,50.1995423 C102.398169,51.5258581 102.442105,53.2778032 102.464073,55.1423341 C102.502517,58.228833 102.189474,64.1162471 102.06865,66.4997712 C102.06865,66.5255529 102.04775,66.5464531 102.021968,66.5464531 C101.996186,66.5464531 101.975286,66.5255529 101.975286,66.4997712 C101.936842,65.2256293 101.865446,62.8338673 101.791304,59.6347826 C101.714416,56.3038902 101.464531,50.9189931 101.313501,47.8270023 C101.280184,47.1565684 100.984241,46.5262092 100.489703,46.0723112 C100.489703,45.9734554 100.489703,45.8773455 100.489703,45.7977117 C100.124752,45.1758442 99.4557709,44.7959037 98.7347424,44.8010013 C98.013714,44.8060989 97.3501717,45.1954602 96.9940503,45.8224256 C96.9940503,45.9020595 96.9940503,45.9926773 96.9940503,46.0970252 C96.4570757,46.5903781 96.15718,47.2901349 96.1702517,48.019222 C96.2141876,51.4654462 96.2773455,57.1771167 96.2553776,58.3551487 L96.1098398,66.0851259 C96.1098398,66.1109076 96.0889396,66.1318078 96.0631579,66.1318078 C96.0373762,66.1318078 96.016476,66.1109076 96.016476,66.0851259 C95.9258581,64.8796339 95.7720824,62.5729977 95.6787185,59.6622426 C95.5963387,57.0370709 95.4837529,53.9450801 95.404119,51.9075515 C95.3818002,51.3271449 95.143879,50.775912 94.7368421,50.3615561 C94.7368421,50.3011442 94.7368421,50.2407323 94.7368421,50.1858124 C94.3873708,49.6024409 93.7685993,49.2332406 93.0892449,49.202746 C92.4495491,49.2003717 91.8481232,49.5072217 91.4745995,50.0265446 C91.4745995,50.1034325 91.4745995,50.1858124 91.4608696,50.2736842 C91.0032716,50.6891902 90.7279821,51.2683835 90.6947368,51.8855835 C90.5656751,54.3569794 90.3377574,58.2700229 90.1455378,60.9034325 C89.8462243,64.794508 89.1652174,73.9661327 88.8576659,75.4572082 C88.5501144,76.9482838 88.1546911,77.2228833 87.9487414,76.3853547 C87.4774088,74.6649096 86.8410461,72.9939976 86.0485126,71.395881 C85.8390676,70.9811483 85.6061971,70.5786673 85.3510297,70.190389 C85.3510297,70.0475973 85.3702517,69.9157895 85.3812357,69.7592677 C85.6064073,66.2938215 85.773913,62.4796339 85.826087,58.5144165 C85.8480549,56.7707094 85.826087,54.6919908 85.7464531,52.4732265 C85.5487414,45.8828375 85.0434783,38.0430206 84.7633867,33.9899314 C84.7197933,33.3367648 84.4621024,32.7161835 84.0302059,32.2242563 C83.9697941,32.1565217 83.9066362,32.0906178 83.8407323,32.0265446 C83.8022883,31.9881007 83.7583524,31.9551487 83.7171625,31.9194508 C83.7171625,31.790389 83.7171625,31.6668192 83.7171625,31.5514874 C83.2547072,30.8718838 82.4724522,30.4812619 81.6513357,30.5199093 C80.8302193,30.5585566 80.0881118,31.0209255 79.6915332,31.7409611 C79.6915332,31.8370709 79.6915332,31.9441648 79.6915332,32.0540046 C79.1299492,32.6008468 78.8055278,33.3463259 78.7881007,34.1299771 C78.7578947,35.4343249 78.7276888,37.189016 78.7057208,39.4160183 C78.7057208,39.5643021 78.7057208,39.7043478 78.7057208,39.8553776 C78.6755149,43.4471396 78.2828375,47.8764302 77.97254,50.8640732 C77.9588101,51.001373 77.9450801,51.1386728 77.9313501,51.2649886 C77.9176201,51.3913043 77.9066362,51.5011442 77.8929062,51.616476 C77.8187643,52.2974828 77.7528604,52.8768879 77.7034325,53.3189931 C77.6986293,53.3461066 77.6780903,53.3677266 77.6512586,53.373913 C77.6512586,53.373913 77.6375286,53.373913 77.6292906,53.373913 C77.5913763,53.373913 77.5606407,53.3431774 77.5606407,53.3052632 C77.4755149,50.7212815 77.2256293,43.2549199 76.9208238,36.4530892 L76.9208238,36.4366133 L76.8961098,35.8874142 C76.8961098,35.8544622 76.8961098,35.8215103 76.8961098,35.7885584 L76.8961098,35.7885584 C76.8466819,34.6901602 76.794508,33.605492 76.7423341,32.5729977 C76.5116705,28.0640732 76.3359268,24.7496568 76.220595,22.5610984 C76.169637,21.6439083 75.7627375,20.7828183 75.0864989,20.1610984 C75.0864989,19.9633867 75.0672769,19.7684211 75.0562929,19.5871854 C74.5327552,18.8272689 73.6826222,18.3574585 72.7606407,18.3185355 C71.6511064,18.3229745 70.6352379,18.9413752 70.1217391,19.9249428 C70.1217391,20.0567506 70.1354691,20.1995423 70.1409611,20.3423341 C69.5017802,21.0197808 69.1588727,21.9239892 69.1881007,22.8549199 C69.2485126,24.8897025 69.3144165,27.578032 69.3501144,30.4393593 C69.4077803,35.1762014 68.9464531,44.2132723 68.7432494,47.8654462 C68.7432494,47.9048771 68.7112844,47.9368421 68.6718535,47.9368421 C68.6324227,47.9368421 68.6004577,47.9048771 68.6004577,47.8654462 C68.5400458,45.9075515 68.4302059,42.2389016 68.3258581,37.3400458 C68.2077803,32.2297483 67.826087,23.9643021 67.5926773,19.216476 C67.5430177,18.1910694 67.0934868,17.2259579 66.3405034,16.5281465 C66.3405034,16.3716247 66.3405034,16.223341 66.3405034,16.0887872 C65.7798291,15.1352123 64.7535435,14.5526211 63.647376,14.5599115 C62.5412085,14.5673398 61.5227653,15.1635346 60.9748284,16.1244851 C60.9748284,16.2480549 60.9748284,16.3853547 60.9748284,16.5281465 C60.1601103,17.2829952 59.7031585,18.3475534 59.7171625,19.4581236 C59.7830664,24.7441648 59.8846682,33.5121281 59.8489703,35.3217391 L59.5881007,47.2805492 C59.5813058,47.3153639 59.5508034,47.3404887 59.5153318,47.3404887 C59.4798602,47.3404887 59.4493578,47.3153639 59.4425629,47.2805492 C59.3025172,45.4297483 59.0691076,41.8901602 58.9263158,37.4224256 C58.8,33.3940503 58.6242563,28.6352403 58.5061785,25.5212815 C58.4717913,24.6308284 58.1088661,23.7846554 57.4874142,23.1459954 C57.4874142,23.0526316 57.4874142,22.9620137 57.4874142,22.8713959 C56.949146,21.9753239 55.9971924,21.4091023 54.9528604,21.3638444 C53.9765657,21.3580154 53.0569946,21.821888 52.4814645,22.6105263 C52.4814645,22.7286041 52.4677346,22.8576659 52.4594966,22.9894737 C51.7591884,23.6272685 51.337994,24.5150319 51.2869565,25.4608696 C51.0864989,29.2613272 50.7377574,35.2558352 50.424714,39.2979405 C49.9661327,45.2677346 48.9199085,59.3437071 48.4475973,61.6421053 C47.975286,63.9405034 47.3684211,64.3551487 47.0526316,63.0672769 C46.32799,60.4248918 45.3485691,57.8590849 44.1281465,55.4059497 C42.5629291,52.3139588 40.7368421,50.6361556 38.7185355,49.0324943 C38.3377173,48.7511062 37.9030774,48.5510784 37.4416476,48.4448513 L37.4032037,48.4091533 C37.4032037,48.2800915 37.3894737,48.1537757 37.3839817,48.0356979 C37.0412589,47.5423311 36.4875902,47.2375593 35.8874142,47.2118993 C35.1644614,47.2139032 34.5023257,47.6168963 34.1684211,48.2581236 C34.1684211,48.3130435 34.1684211,48.3707094 34.1684211,48.4311213 C33.6529904,48.5294518 33.1765241,48.7734025 32.7954233,49.1340961 C32.7055221,49.2359271 32.6364825,49.354414 32.5922197,49.4828375 C32.5647597,48.8732265 32.5372998,48.2993135 32.5125858,47.7940503 C32.4778139,47.12398 32.1821165,46.4941445 31.6887872,46.0393593 C31.6887872,45.9405034 31.6887872,45.8443936 31.6887872,45.7647597 C31.3238367,45.1428923 30.6548555,44.7629517 29.9338271,44.7680493 C29.2127986,44.7731469 28.5492564,45.1625083 28.193135,45.7894737 C28.193135,45.8691076 28.193135,45.9597254 28.193135,46.0640732 C27.6573352,46.5582575 27.3576769,47.2574603 27.3693364,47.98627 C27.4132723,51.4324943 27.4791762,57.1441648 27.4544622,58.3221968 L27.3006865,66.1235698 C27.3006865,66.1493515 27.2797863,66.1702517 27.2540046,66.1702517 C27.2282229,66.1702517 27.2073227,66.1493515 27.2073227,66.1235698 C27.1167048,64.9180778 26.9629291,62.6114416 26.8723112,59.7006865 C26.7899314,57.0755149 26.6745995,53.983524 26.5977117,51.9459954 C26.5744714,51.365531 26.3378462,50.8140573 25.9331808,50.397254 C25.9331808,50.3368421 25.9331808,50.2764302 25.9331808,50.2215103 C25.5844337,49.6374139 24.965232,49.2679569 24.2855835,49.2384439 C23.6461054,49.236981 23.045072,49.5436307 22.6709382,50.0622426 C22.6709382,50.1391304 22.6709382,50.2215103 22.6709382,50.3093822 C22.2123629,50.7241618 21.9368704,51.3037822 21.9048055,51.9212815 C21.7729977,54.3926773 21.5450801,58.3057208 21.3556064,60.9391304 C21.0562929,64.8302059 20.37254,74.0018307 20.0649886,75.4929062 C19.7574371,76.9839817 19.3620137,77.2585812 19.1560641,76.4210526 C18.6850845,74.687065 18.0439861,73.0038368 17.2421053,71.395881 C16.223341,69.3720824 15.0453089,68.2791762 13.7189931,67.2329519 C12.7826087,66.4887872 10.4897025,66.587643 9.87459954,67.2988558 C9.75312745,67.4406828 9.68941622,67.6229949 9.69610984,67.809611 C9.61098398,67.8398169 9.52860412,67.8727689 9.45720824,67.9057208 C9.51212815,68.6773455 10.228833,69.9514874 11.0251716,72.1345538 L11.2311213,72.0439359 C11.3354691,72.3185355 11.4398169,72.617849 11.5441648,72.9308924 C12.7002288,76.3798627 12.9885584,78.573913 14.0155606,82.816476 C14.9025172,86.4466819 17.5688787,89.0086957 20.1610984,93.0672769 C22.7533181,97.1258581 22.9949657,101.80778 22.9949657,101.80778 L22.9949657,102.2746 L22.6819222,102.337757 C21.3669393,102.615587 20.4236314,103.772711 20.416476,105.116705 L20.416476,110.46865 C20.4151913,111.315253 20.7910356,112.118443 21.4418497,112.659903 C22.0926639,113.201364 22.9508219,113.424831 23.7830664,113.269565 C28.8936415,112.350465 34.1281741,112.361628 39.2347826,113.302517 C40.0663289,113.461038 40.9252767,113.241005 41.5781954,112.702215 C42.2311141,112.163424 42.6101727,111.36185 42.612357,110.515332 L42.612357,105.166133 C42.6107165,103.822546 41.6736026,102.661439 40.3606407,102.376201 L40.3002288,102.376201 C40.5102416,100.461825 40.8776169,98.5680056 41.398627,96.7139588 C42.1125858,94.4320366 43.0462243,91.4416476 43.4471396,88.1107551 C43.6366133,86.5400458 43.8425629,84.4997712 44.0155606,82.1656751 C45.4434783,84.1455378 47.0361556,86.2379863 48.590389,88.6901602 C48.7276888,88.9043478 48.8649886,89.1212815 48.9885584,89.3409611 L48.9885584,89.3409611 C49.8384542,90.7844531 50.5518422,92.3040799 51.1194508,93.8800915 L51.1194508,93.8965675 C51.1798627,94.0668192 51.2402746,94.2370709 51.2979405,94.4045767 C51.3031327,94.4223919 51.3095554,94.4398251 51.3171625,94.4567506 C51.3720824,94.6187643 51.4242563,94.775286 51.4736842,94.9345538 L51.4983982,95.0059497 C51.5478261,95.1597254 51.594508,95.3107551 51.6411899,95.4617849 L51.6659039,95.5469108 C51.7098398,95.6924485 51.7537757,95.8379863 51.7949657,95.980778 C51.7949657,96.010984 51.8114416,96.0439359 51.8224256,96.0741419 C51.8608696,96.2141876 51.8993135,96.3487414 51.9350114,96.4887872 C51.9350114,96.5217391 51.9542334,96.5574371 51.9624714,96.590389 C51.9981693,96.7249428 52.0338673,96.8649886 52.0668192,96.9858124 C52.0668192,97.0215103 52.0832952,97.0572082 52.0942792,97.0929062 L52.184897,97.4691076 C52.184897,97.5048055 52.201373,97.5432494 52.212357,97.5789474 C52.2398169,97.6997712 52.2672769,97.820595 52.2919908,97.9386728 L52.3167048,98.0485126 L52.3908467,98.389016 C52.3908467,98.424714 52.3908467,98.4631579 52.4128146,98.4988558 C52.4347826,98.6086957 52.4567506,98.7157895 52.4759725,98.8228833 C52.4759725,98.8585812 52.4924485,98.8942792 52.4979405,98.9299771 C52.5180778,99.0343249 52.5372998,99.1359268 52.5556064,99.2347826 C52.5556064,99.2704805 52.5556064,99.3034325 52.5748284,99.3391304 L52.6242563,99.61373 L52.6407323,99.7180778 C52.6544622,99.8059497 52.6709382,99.8938215 52.6819222,99.9789474 L52.6983982,100.083295 C52.6983982,100.165675 52.7231121,100.245309 52.7340961,100.324943 C52.7340961,100.355149 52.7340961,100.388101 52.7340961,100.418307 L52.7670481,100.640732 C52.7670481,100.670938 52.7670481,100.701144 52.7670481,100.73135 C52.7670481,100.761556 52.783524,100.865904 52.791762,100.929062 C52.8,100.99222 52.791762,100.989474 52.791762,101.016934 C52.791762,101.044394 52.805492,101.135011 52.810984,101.189931 C52.816476,101.244851 52.810984,101.247597 52.810984,101.277803 C52.810984,101.308009 52.810984,101.373913 52.824714,101.417849 C52.8384439,101.461785 52.824714,101.475515 52.824714,101.502975 C52.824714,101.530435 52.824714,101.585355 52.824714,101.621053 C52.824714,101.656751 52.824714,101.670481 52.824714,101.695195 C52.824714,101.719908 52.824714,101.758352 52.824714,101.783066 C52.824714,101.80778 52.824714,101.84897 52.824714,101.87643 C52.824714,101.90389 52.824714,101.90389 52.824714,101.914874 C52.824714,101.925858 52.824714,101.97254 52.824714,101.994508 C52.8233805,102.000846 52.8233805,102.007392 52.824714,102.01373 C52.824714,102.065904 52.824714,102.093364 52.824714,102.093364 L52.824714,102.807323 L52.3469108,102.903432 C50.3303073,103.333833 48.8843453,105.108734 48.8704805,107.170709 L48.8540046,115.381236 C48.8515025,116.680337 49.4279911,117.912995 50.4266429,118.743878 C51.4252948,119.57476 52.7422414,119.917449 54.019222,119.678719 C61.8622449,118.27354 69.8941292,118.291213 77.7308924,119.730892 C79.0070023,119.975387 80.3256872,119.638453 81.3281047,118.811777 C82.3305222,117.985101 82.9123763,116.754695 82.9153318,115.455378 L82.9345538,107.244851 C82.9290898,105.183531 81.4913152,103.403158 79.4773455,102.963844 L79.3839817,102.944622 C79.4196796,102.560183 79.5075515,101.846224 79.6448513,100.953776 C79.6887872,100.654462 79.7409611,100.333181 79.795881,99.9981693 C80.1041723,98.0588324 80.5352448,96.1410183 81.0864989,94.2562929 C81.2237986,93.8169336 81.3656751,93.3592677 81.5121281,92.8832952 C81.6356979,92.4823799 81.7620137,92.0594966 81.8883295,91.6475973 L82.0036613,91.2494279 C82.5528604,89.395881 83.1020595,87.3446224 83.5578947,85.1505721 C84.7935927,87.6796339 86.8366133,89.9231121 88.8356979,93.0562929 C91.4279176,97.1176201 91.6695652,101.796796 91.6695652,101.796796 L91.6695652,102.263616 L91.3592677,102.326773 C90.0442848,102.604603 89.100977,103.761727 89.0938215,105.105721 L89.0800915,110.457666 C89.0788069,111.304269 89.4546511,112.107459 90.1054653,112.648919 C90.7562794,113.19038 91.6144375,113.413847 92.4466819,113.258581 C97.557257,112.339481 102.79179,112.350645 107.898398,113.291533 C108.730095,113.451088 109.58962,113.231441 110.242803,112.692432 C110.895985,112.153424 111.274774,111.35121 111.275973,110.504348 L111.275973,105.155149 C111.274332,103.811562 110.337218,102.650455 109.024256,102.365217 L108.963844,102.365217 C109.171099,100.450424 109.538519,98.5563773 110.062243,96.7029748 C110.773455,94.4210526 111.70984,91.4306636 112.110755,88.0997712 C112.678796,83.2258483 112.997747,78.3261129 113.066362,73.4196796 C113.275057,68.8887872 112.77254,60.9610984 112.528146,57.4187643 Z M33.6686499,55.1066362 C33.7043478,58.193135 33.3940503,64.0805492 33.2732265,66.4640732 C33.2732265,66.4898549 33.2523263,66.5107551 33.2265446,66.5107551 C33.2007629,66.5107551 33.1798627,66.4898549 33.1798627,66.4640732 C33.1386728,65.1899314 33.0672769,62.7981693 32.993135,59.5990847 C32.9464531,57.4956522 32.8283753,54.573913 32.7185355,51.9240275 C32.973913,52.5638444 33.2979405,53.3135011 33.6631579,54.2004577 C33.6604119,54.5025172 33.6631579,54.8018307 33.6686499,55.1066362 L33.6686499,55.1066362 Z" id="Shape" fill="url(#linearGradient-1)" fill-rule="nonzero" style="mix-blend-mode: multiply;"></path>
                        <path d="M13.5542334,87.2347826 C13.5542334,87.2347826 13.3125858,82.5665904 10.7203661,78.4942792 C8.12814645,74.421968 5.4590389,71.8736842 4.57482838,68.2434783 C3.5423341,64.0118993 3.25400458,61.817849 2.10343249,58.3578947 C0.952860412,54.8979405 -0.194965675,53.4370709 0.431121281,52.7258581 C1.05720824,52.0146453 3.35286041,51.9157895 4.27551487,52.6599542 C5.58810069,53.7061785 6.7798627,54.7990847 7.798627,56.8228833 C8.59459487,58.4220224 9.23285077,60.094915 9.70434783,61.817849 C9.91029748,62.6416476 10.3057208,62.38627 10.6132723,60.8897025 C10.9208238,59.393135 11.6018307,50.2187643 11.9011442,46.3359268 C12.1043478,43.7025172 12.3322654,39.7949657 12.4503432,37.3180778 C12.5167787,36.0512104 13.5764985,35.0656224 14.8448513,35.0910755 L14.8448513,35.0910755 C16.0912766,35.1162605 17.1023396,36.1080652 17.1514874,37.3537757 C17.2283753,39.3913043 17.3409611,42.4832952 17.426087,45.1084668 C17.5194508,48.019222 17.6732265,50.3258581 17.7638444,51.5313501 C17.7638444,51.5571318 17.7847446,51.578032 17.8105263,51.578032 C17.836308,51.578032 17.8572082,51.5571318 17.8572082,51.5313501 L18.010984,43.7299771 C18.0356979,42.5519451 17.9697941,36.8402746 17.9258581,33.3940503 C17.9175538,32.6985031 18.1915198,32.0292899 18.6851888,31.5392432 C19.1788579,31.0491964 19.8500705,30.7801662 20.5455378,30.7931132 L20.5455378,30.7931132 C21.8964278,30.8194952 22.9960898,31.8879441 23.0608696,33.2375286 C23.2118993,36.3350114 23.4617849,41.7199085 23.5386728,45.0453089 C23.6128146,48.2361556 23.6842105,50.6279176 23.7254005,51.9102975 C23.7254005,51.9360792 23.7463007,51.9569794 23.7720824,51.9569794 C23.7978641,51.9569794 23.8187643,51.9360792 23.8187643,51.9102975 C23.9478261,49.5267735 24.2498856,43.6393593 24.2114416,40.5528604 C24.1894737,38.6883295 24.1455378,36.9363844 24.1070938,35.6100686 C24.0881734,34.9824466 24.3274677,34.3745254 24.7691235,33.9281987 C25.2107794,33.481872 25.8161496,33.2361957 26.4439359,33.2485126 L26.4439359,33.2485126 C27.644862,33.2740857 28.6230286,34.2211234 28.6874142,35.420595 C28.7643021,36.8457666 28.8796339,38.990389 29.0279176,41.9423341 C29.2805492,46.8851259 29.5002288,53.4425629 29.5771167,55.4553776 C29.5771167,55.4811593 29.5980169,55.5020595 29.6237986,55.5020595 C29.6495803,55.5020595 29.6704805,55.4811593 29.6704805,55.4553776 C29.8489703,53.9258581 30.2965675,49.815103 30.3240275,46.6681922 C30.3240275,45.0782609 30.3597254,43.8425629 30.3789474,42.9363844 C30.4044464,41.8612548 31.2945766,41.0091854 32.3697941,41.0306636 L32.3697941,41.0306636 C33.385543,41.0425537 34.2219546,41.8323653 34.2919908,42.8457666 C34.5363844,46.3771167 35.0416476,54.3130435 34.9839817,58.82746 C34.9132969,63.733894 34.593434,68.6335707 34.0256293,73.5075515 C33.624714,76.8384439 32.6883295,79.823341 31.9771167,82.1107551 C31.4246778,84.0272989 31.0505467,85.9907975 30.8594966,87.9762014 C30.8979405,88.1025172 13.5597254,88.3853547 13.5597254,88.3853547 L13.5542334,87.2347826 Z" id="Path" fill="#E8D1C3" fill-rule="nonzero"></path>
                        <path d="M10.9674968,95.8956522 C10.965388,96.7420167 11.3405928,97.5452898 11.9910076,98.0868597 C12.6414225,98.6284296 13.4993668,98.8519419 14.3313501,98.6965675 C19.4419252,97.7774677 24.6764578,97.7886308 29.7830664,98.7295195 C30.6150269,98.8889667 31.4747667,98.6693633 32.1283484,98.1304637 C32.78193,97.5915641 33.1613572,96.7894336 33.1633867,95.9423341 L33.1633867,90.593135 C33.1617463,89.2495478 32.2246324,88.0884409 30.9116705,87.8032037 C25.0856408,86.5603532 19.0643318,86.5472593 13.2329519,87.7647597 C11.9245143,88.0492896 10.9894529,89.2047014 10.9839817,90.5437071 L10.9674968,95.8956522 Z" id="Path" fill="#1464A5"></path>
                        <circle id="Oval" fill="#004481" fill-rule="nonzero" cx="28.9894737" cy="93.3089245" r="1.78764302"></circle>
                        <path d="M1.57620137,57.57254 C2.23524027,57.2979405 3.68237986,56.6306636 3.597254,56.37254 C3.44955566,55.665254 3.21240875,54.9796503 2.89153318,54.3322654 C2.52717787,53.5100544 1.67428387,53.0165071 0.7798627,53.1102975 C0.513809274,53.1512954 0.254929712,53.2298838 0.0109839817,53.3437071 C0.0659038902,54.1153318 0.782608696,55.3894737 1.57620137,57.57254 Z" id="Path" fill="#F2DAD4" fill-rule="nonzero"></path>
                        <path d="M16.4100686,38.0485126 C16.4347826,37.8672769 16.4787185,36.4805492 16.5144165,35.6320366 C16.1656694,35.0479402 15.5464677,34.6784832 14.8668192,34.648965 C14.2273411,34.6475073 13.6263077,34.954157 13.2521739,35.4727689 C13.208238,36.2965675 13.1533181,37.7656751 13.1533181,37.8864989 C13.1533181,38.0842105 13.9167048,38.6965675 14.8585812,38.7102975 C15.8636156,38.6993135 16.3661327,38.3697941 16.4100686,38.0485126 Z" id="Path" fill="#F2DAD4" fill-rule="nonzero"></path>
                        <path d="M18.8073227,34.0668192 C18.8073227,34.2782609 19.6832952,34.8576659 20.6855835,34.7697941 C21.7592677,34.6736842 22.2727689,34.2700229 22.2947368,33.9212815 C22.2947368,33.7263158 22.2947368,32.1034325 22.2562929,31.197254 C21.889161,30.6059261 21.2545269,30.2331556 20.5592677,30.2004577 L20.5592677,30.2004577 C19.8224417,30.2033715 19.1405639,30.5906364 18.7606407,31.221968 C18.7771167,32.1281465 18.7963387,33.9350114 18.8073227,34.0668192 Z" id="Path" fill="#F2DAD4" fill-rule="nonzero"></path>
                        <path d="M24.7359268,33.7016018 C24.7716247,34.5254005 24.8237986,35.9121281 24.8347826,36.0302059 C24.8540046,36.2279176 25.6585812,36.7386728 26.5839817,36.626087 C27.5697941,36.5080092 28.0311213,36.1153318 28.0421053,35.8022883 C28.0421053,35.6183066 27.9981693,34.3414188 27.9487414,33.4929062 C27.6060187,32.9995393 27.05235,32.6947676 26.4521739,32.6691076 L26.4521739,32.6691076 C25.7331843,32.6694447 25.0730801,33.0665633 24.7359268,33.7016018 Z" id="Path" fill="#F2DAD4" fill-rule="nonzero"></path>
                        <path d="M32.3643021,40.6050343 C31.7990098,40.6100255 31.2777982,40.9112858 30.9913043,41.398627 C30.9913043,42.0768879 30.9913043,43.2302059 30.9913043,43.3208238 C30.9913043,43.4828375 31.6338673,43.9496568 32.389016,43.9112128 C33.1963387,43.8700229 33.58627,43.5734554 33.610984,43.3070938 C33.610984,43.1505721 33.610984,41.98627 33.610984,41.2695652 C33.3212004,40.8664374 32.8605233,40.6208782 32.3643021,40.6050343 Z" id="Path" fill="#E5A683" fill-rule="nonzero"></path>
                        <path d="M82.3578947,87.2347826 C82.3578947,87.2347826 82.1162471,82.5665904 79.5240275,78.4942792 C76.9318078,74.421968 74.2654462,71.8736842 73.3784897,68.2434783 C72.3459954,64.0118993 72.0576659,61.817849 70.9070938,58.3578947 C69.7565217,54.8979405 68.6114416,53.4370709 69.2375286,52.7258581 C69.8636156,52.0146453 72.1592677,51.9157895 73.0819222,52.6599542 C74.416476,53.7171625 75.594508,54.8100686 76.6132723,56.8421053 C77.4104798,58.4407007 78.0487828,60.1137168 78.5189931,61.8370709 C78.7249428,62.6608696 79.1203661,62.405492 79.4279176,60.9089245 C79.7354691,59.412357 80.419222,50.2379863 80.7185355,46.3551487 C80.9217391,43.7217391 81.1496568,39.8141876 81.2677346,37.3372998 C81.3369948,36.0706559 82.3966808,35.0862281 83.6649886,35.1102975 L83.6649886,35.1102975 C84.9045488,35.1290868 85.9164326,36.1073212 85.9771167,37.3455378 C86.0540046,39.3830664 86.1693364,42.4750572 86.2517162,45.1002288 C86.3423341,48.010984 86.4961098,50.3176201 86.5894737,51.5231121 C86.5894737,51.5488938 86.6103739,51.569794 86.6361556,51.569794 C86.6619373,51.569794 86.6828375,51.5488938 86.6828375,51.5231121 L86.8366133,43.7217391 C86.8585812,42.5437071 86.7926773,36.8320366 86.7514874,33.3858124 C86.742412,32.690034 87.0161316,32.0203686 87.5099715,31.5301523 C88.0038114,31.0399359 88.6754744,30.7711555 89.371167,30.7848194 L89.371167,30.7848194 C90.7214986,30.8125953 91.8203976,31.8803028 91.8864989,33.2292906 C92.0375286,36.3267735 92.2874142,41.7116705 92.3643021,45.0370709 C92.4356979,48.2279176 92.5070938,50.6196796 92.5482838,51.9020595 C92.5482838,51.9278412 92.569184,51.9487414 92.5949657,51.9487414 C92.6207474,51.9487414 92.6416476,51.9278412 92.6416476,51.9020595 C92.7734554,49.5185355 93.0727689,43.6311213 93.0370709,40.5446224 C93.015103,38.6800915 92.971167,36.9281465 92.9299771,35.6018307 C92.9118525,34.9744352 93.1514047,34.3669785 93.5928848,33.9208295 C94.0343648,33.4746805 94.6392678,33.2287511 95.2668192,33.2402746 L95.2668192,33.2402746 C96.4688108,33.2644301 97.4485726,34.2118526 97.5130435,35.412357 C97.5899314,36.8375286 97.7025172,38.982151 97.8535469,41.9340961 C98.1061785,46.8768879 98.3258581,53.4343249 98.389016,55.4471396 C98.389016,55.4729213 98.4099162,55.4938215 98.4356979,55.4938215 C98.4614797,55.4938215 98.4823799,55.4729213 98.4823799,55.4471396 C98.6608696,53.9176201 99.1084668,49.806865 99.1359268,46.6599542 C99.1524027,45.0700229 99.1743707,43.8343249 99.1935927,42.9281465 C99.2190917,41.8530168 100.109222,41.0009474 101.184439,41.0224256 L101.184439,41.0224256 C102.194352,41.0426703 103.022074,41.8298994 103.092906,42.8375286 C103.334554,46.3688787 103.839817,54.3048055 103.782151,58.819222 C103.714251,63.7257665 103.394379,68.6255852 102.823799,73.4993135 C102.425629,76.8302059 101.489245,79.815103 100.775286,82.1025172 C100.225715,84.0197447 99.8516342,85.9829781 99.6576659,87.9679634 C99.6988558,88.0942792 82.3578947,88.3771167 82.3578947,88.3771167 L82.3578947,87.2347826 Z" id="Path" fill="#C49878" fill-rule="nonzero"></path>
                        <path d="M79.7711638,95.8956522 C79.7698824,96.7422552 80.1457266,97.5454453 80.7965408,98.0869056 C81.4473549,98.628366 82.305513,98.8518337 83.1377574,98.6965675 C88.2483326,97.7774677 93.4828651,97.7886308 98.5894737,98.7295195 C99.4211706,98.8890743 100.280695,98.669427 100.933878,98.1304186 C101.587061,97.5914102 101.96585,96.7891966 101.967048,95.9423341 L101.980778,90.593135 C101.978857,89.248718 101.040369,88.0873253 99.7263158,87.8032037 C93.9002861,86.5603532 87.8789771,86.5472593 82.0475973,87.7647597 C80.7331293,88.0427665 79.7907338,89.2001746 79.784897,90.5437071 L79.7711638,95.8956522 Z" id="Path" fill="#004481"></path>
                        <circle id="Oval" fill="#1464A5" fill-rule="nonzero" cx="97.795881" cy="93.3089245" r="1.78764302"></circle>
                        <path d="M70.3826087,57.57254 C71.0389016,57.2979405 72.4860412,56.6306636 72.4009153,56.37254 C72.2548459,55.6651736 72.0185909,54.9794802 71.6979405,54.3322654 C71.3325876,53.5096198 70.4787135,53.0161471 69.583524,53.1102975 C69.3183512,53.1512937 69.0603779,53.2298877 68.8173913,53.3437071 C68.8695652,54.1153318 69.589016,55.3894737 70.3826087,57.57254 Z" id="Path" fill="#1464A5" fill-rule="nonzero"></path>
                        <path d="M85.21373,38.0485126 C85.2384439,37.8672769 85.2851259,36.4805492 85.3208238,35.6320366 C84.9713525,35.0486652 84.352581,34.6794648 83.6732265,34.6489678 C83.0338569,34.6479606 82.4330184,34.9545108 82.0585812,35.4727689 C82.0146453,36.2965675 81.9597254,37.7656751 81.9597254,37.8864989 C81.9597254,38.0842105 82.7258581,38.6965675 83.6677346,38.7102975 C84.6672769,38.6993135 85.1697941,38.3697941 85.21373,38.0485126 Z" id="Path" fill="#D1B39F" fill-rule="nonzero"></path>
                        <path d="M87.610984,34.0668192 C87.62746,34.2782609 88.4897025,34.8576659 89.4919908,34.7697941 C90.5656751,34.6736842 91.0764302,34.2700229 91.0983982,33.9212815 C91.1121281,33.7263158 91.0983982,32.1034325 91.0627002,31.197254 C90.694887,30.6066249 90.0606557,30.234091 89.3656751,30.2004577 L89.3656751,30.2004577 C88.6285612,30.2022891 87.946189,30.5898349 87.5670481,31.221968 C87.580778,32.1281465 87.597254,33.9350114 87.610984,34.0668192 Z" id="Path" fill="#D1B39F" fill-rule="nonzero"></path>
                        <path d="M93.5395881,33.7016018 C93.578032,34.5254005 93.62746,35.9121281 93.6384439,36.0302059 C93.6576659,36.2279176 94.4622426,36.7386728 95.390389,36.626087 C96.3762014,36.5080092 96.8375286,36.1153318 96.8485126,35.8022883 C96.8485126,35.6183066 96.8045767,34.3414188 96.7551487,33.4929062 C96.412426,32.9995393 95.8587573,32.6947676 95.2585812,32.6691076 L95.2585812,32.6691076 C94.538944,32.6696482 93.8781216,33.0665639 93.5395881,33.7016018 Z" id="Path" fill="#D1B39F" fill-rule="nonzero"></path>
                        <path d="M101.170709,40.6050343 C100.600659,40.6057456 100.073377,40.9074969 99.7839817,41.398627 C99.7839817,42.0768879 99.7839817,43.2302059 99.7839817,43.3208238 C99.7839817,43.4828375 100.426545,43.9496568 101.178947,43.9112128 C101.98627,43.8700229 102.378947,43.5734554 102.400915,43.3070938 C102.414645,43.1505721 102.417391,41.98627 102.414645,41.2695652 C102.125162,40.86751 101.665842,40.6221341 101.170709,40.6050343 L101.170709,40.6050343 Z" id="Path" fill="#D1B39F" fill-rule="nonzero"></path>
                        <path d="M43.5102975,87.5203661 C43.5102975,87.5203661 43.1395881,80.3368421 39.1606407,74.1061785 C35.1816934,67.8755149 31.0901602,63.9459954 29.7308924,58.3743707 C28.1464531,51.8800915 27.7043478,48.5135011 25.9304348,43.219222 C24.1565217,37.9249428 22.4045767,35.6677346 23.3656751,34.5775744 C24.3267735,33.4874142 27.8498856,33.3363844 29.2832952,34.4787185 C31.3016018,36.0823799 33.1276888,37.7601831 34.6901602,40.8659039 C35.9149342,43.3177519 36.8962904,45.8838099 37.6201373,48.5272311 C37.9386728,49.815103 38.5427918,49.4004577 39.015103,47.1020595 C39.4874142,44.8036613 40.5363844,30.7276888 40.9949657,24.7578947 C41.3052632,20.7157895 41.6567506,14.7212815 41.8572082,10.9208238 C41.960493,8.97621741 43.5871251,7.46377758 45.5340961,7.5020595 L45.5340961,7.5020595 C47.448113,7.5430719 48.9974601,9.07073296 49.0654462,10.9839817 C49.183524,14.1116705 49.3592677,18.8567506 49.4855835,22.8851259 C49.6256293,27.3528604 49.8617849,30.8924485 50.0018307,32.7432494 C50.0018307,32.7826803 50.0337957,32.8146453 50.0732265,32.8146453 C50.1126574,32.8146453 50.1446224,32.7826803 50.1446224,32.7432494 L50.380778,20.7734554 C50.416476,18.9638444 50.3176201,10.195881 50.2517162,4.90983982 C50.2381041,3.84226282 50.658276,2.81485653 51.4160698,2.06275651 C52.1738636,1.31065649 53.2044096,0.89824521 54.2718535,0.919096137 L54.2718535,0.919096137 C56.3383461,0.958796361 58.0236247,2.58773923 58.1327231,4.65171625 C58.3633867,9.40503432 58.7478261,17.6704805 58.8631579,22.775286 C58.9757437,27.6741419 59.0855835,31.3427918 59.1377574,33.3006865 C59.1377575,33.3401173 59.1697225,33.3720823 59.2091533,33.3720823 C59.2485842,33.3720823 59.2805492,33.3401173 59.2805492,33.3006865 C59.4810069,29.6485126 59.9450801,20.6114416 59.8874142,15.8745995 C59.8517162,13.0132723 59.7858124,10.3249428 59.7226545,8.29016018 C59.6945318,7.32504328 60.0640414,6.39073603 60.7446918,5.70593208 C61.4253423,5.02112813 62.3573843,4.64594149 63.3226545,4.66819222 L63.3226545,4.66819222 C65.1660358,4.70447263 66.6686176,6.15792689 66.7661327,7.99908467 C66.8842105,10.195881 67.0572082,13.4910755 67.2878719,18.010984 C67.6750572,25.5789474 68.0128146,35.6567506 68.1116705,38.7459954 C68.1116705,38.7854263 68.1436355,38.8173913 68.1830664,38.8173913 C68.2224972,38.8173913 68.2544622,38.7854263 68.2544622,38.7459954 C68.5290618,36.3981693 69.2155606,30.0906178 69.2594966,25.2906178 C69.2814645,22.8494279 69.3144165,20.9546911 69.3473684,19.5652174 C69.383386,17.9141705 70.74982,16.6042616 72.4009153,16.6379863 L72.4009153,16.6379863 C73.9513485,16.6684762 75.2217444,17.8780933 75.3281465,19.4251716 C75.7016018,24.8457666 76.4759725,37.0242563 76.3881007,43.9496568 C76.2831367,51.4755363 75.7927919,58.9911014 74.9189931,66.4668192 C74.3066362,71.5798627 72.8704805,76.1656751 71.7748284,79.6695652 C70.6791762,83.1734554 69.9981693,88.4787185 70.0585812,88.6709382 C70.1189931,88.8631579 43.5185355,89.2997712 43.5185355,89.2997712 L43.5102975,87.5203661 Z" id="Path" fill="#F7B27F" fill-rule="nonzero"></path>
                        <path d="M72.4009153,16.6400954 L72.4009153,16.6400954 C70.74982,16.6070076 69.383386,17.9169165 69.3473684,19.5679634 C69.3144165,20.9574371 69.2814645,22.8631579 69.2594966,25.2933638 C69.2155606,30.1016018 68.5290618,36.4091533 68.2544622,38.7487414 C68.2544622,38.7881723 68.2224972,38.8201373 68.1830664,38.8201373 C68.1436355,38.8201373 68.1116705,38.7881723 68.1116705,38.7487414 C68.0265446,36.0823799 67.7629291,28.204119 67.4443936,21.2292906 L39.5615561,74.7569794 C43.1643021,80.8256293 43.5102975,87.5203661 43.5102975,87.5203661 L43.5102975,89.3135011 C43.5102975,89.3135011 70.1107551,88.8768879 70.0503432,88.6846682 C69.9899314,88.4924485 70.6736842,83.1926773 71.7665904,79.6832952 C72.8594966,76.173913 74.2983982,71.5935927 74.9107551,66.4805492 C75.7845539,59.0048314 76.2748987,51.4892663 76.3798627,43.9633867 C76.4677346,37.0379863 75.6933638,24.8594966 75.3199085,19.4389016 C75.2192407,17.8905892 73.9520983,16.6758968 72.4009153,16.6400954 Z" id="Path" fill="url(#linearGradient-2)" fill-rule="nonzero"></path>
                        <path d="M39.5423269,100.808238 C39.5399857,102.106761 40.1161066,103.338864 41.1140965,104.169637 C42.1120864,105.000411 43.4282412,105.343527 44.7048055,105.105721 C52.5487531,103.700569 60.5815332,103.718242 68.419222,105.157895 C69.6936733,105.398689 71.0091919,105.060039 72.0089592,104.233798 C73.0087264,103.407557 73.5891062,102.179375 73.5926773,100.88238 L73.6118993,92.6718535 C73.6064353,90.6105336 72.1686608,88.8301598 70.1546911,88.3908467 C61.2137017,86.4853146 51.9736431,86.4647395 43.0242563,88.3304348 C41.0076528,88.7608352 39.5616908,90.5357364 39.5478261,92.5977117 L39.5423269,100.808238 Z" id="Path" fill="#2DCCCD"></path>
                        <circle id="Oval" fill="#02A5A5" fill-rule="nonzero" cx="67.2" cy="96.8375286" r="2.74599542"></circle>
                        <path d="M25.1313501,41.997254 C26.1418764,41.5633867 28.3633867,40.5528604 28.228833,40.1546911 C28.0585812,39.6439359 28.0036613,38.7322654 27.1496568,37.0270023 C26.2956522,35.3217391 24.7606407,35.0361556 23.9066362,35.1487414 C23.499321,35.2140621 23.1029278,35.3351052 22.7286041,35.5084668 C22.810984,36.6947368 23.9121281,38.6498856 25.1313501,41.997254 Z" id="Path" fill="#FACBA9" fill-rule="nonzero"></path>
                        <path d="M47.8929062,12.0356979 C47.9313501,11.7610984 48.002746,9.62745995 48.0549199,8.32585812 C47.5182659,7.42948804 46.5668935,6.86299841 45.5231121,6.81828061 C44.5472415,6.81427975 43.6284436,7.27776221 43.0517162,8.06498856 C42.9858124,9.33089245 42.9006865,11.5881007 42.9006865,11.7693364 C42.9006865,12.0741419 44.0732265,13.0132723 45.5176201,13.0242563 C47.0553776,13.0352403 47.8270023,12.5272311 47.8929062,12.0356979 Z" id="Path" fill="#FACBA9" fill-rule="nonzero"></path>
                        <path d="M51.57254,5.92585812 C51.594508,6.24988558 52.9180778,7.1395881 54.4585812,7.00228833 C56.1061785,6.85949657 56.8915332,6.2389016 56.9299771,5.70343249 C56.9491991,5.40411899 56.9135011,2.91075515 56.8723112,1.52402746 C56.3076243,0.616550654 55.3314387,0.0462527645 54.2636156,-1.42108547e-14 L54.2636156,-1.42108547e-14 C53.1328661,0.00164531966 52.085638,0.595595532 51.5038902,1.56521739 C51.5258581,2.9382151 51.5588101,5.72265446 51.57254,5.92585812 Z" id="Path" fill="#FACBA9" fill-rule="nonzero"></path>
                        <path d="M60.6700229,5.36567506 C60.7276888,6.63981693 60.8045767,8.75697941 60.8237986,8.93546911 C60.8540046,9.2375286 62.0951945,10.0338673 63.5093822,9.84988558 C65.0224256,9.66590389 65.7281465,9.06453089 65.7473684,8.56475973 C65.7473684,8.29016018 65.6787185,6.32402746 65.6045767,5.02242563 C65.080447,4.26316276 64.2306675,3.79354778 63.3089245,3.75377574 L63.3089245,3.75377574 C62.1981953,3.75928434 61.1820321,4.37997927 60.6700229,5.36567506 L60.6700229,5.36567506 Z" id="Path" fill="#FACBA9" fill-rule="nonzero"></path>
                        <path d="M72.3816934,15.9569794 C71.5059059,15.958454 70.6963055,16.4233214 70.2535469,17.1789474 C70.2535469,18.2169336 70.2343249,19.9908467 70.2535469,20.1391304 C70.2535469,20.389016 71.2393593,21.1057208 72.3981693,21.0453089 C73.6366133,20.982151 74.2352403,20.5290618 74.2736842,20.1199085 C74.2929062,19.8782609 74.2956522,18.0933638 74.2901602,16.9894737 C73.8471841,16.3695099 73.1429993,15.9885408 72.3816934,15.9569794 L72.3816934,15.9569794 Z" id="Path" fill="#FACBA9" fill-rule="nonzero"></path>
                    </g>
                </g>
            </g>
        </g>
    </g>
</svg>